%YAML 1.1
%TAG !u! tag:unity3d.com,2011:
--- !u!114 &11400000
MonoBehaviour:
  m_ObjectHideFlags: 0
  m_CorrespondingSourceObject: {fileID: 0}
  m_PrefabInstance: {fileID: 0}
  m_PrefabAsset: {fileID: 0}
  m_GameObject: {fileID: 0}
  m_Enabled: 1
  m_EditorHideFlags: 0
  m_Script: {fileID: 11500000, guid: dcac70d4e46739949bbe1ea87c9fa04a, type: 3}
  m_Name: event_player_hurt
  m_EditorClassIdentifier: 
  audioActions:
  - audioContainer: {fileID: 11400000, guid: a7c150feef824e64aaa50f6499a887d4, type: 2}
    audioEvent: {fileID: 0}
    containerAction: 0
