%YAML 1.1
%TAG !u! tag:unity3d.com,2011:
--- !u!114 &11400000
MonoBehaviour:
  m_ObjectHideFlags: 0
  m_CorrespondingSourceObject: {fileID: 0}
  m_PrefabInstance: {fileID: 0}
  m_PrefabAsset: {fileID: 0}
  m_GameObject: {fileID: 0}
  m_Enabled: 1
  m_EditorHideFlags: 0
  m_Script: {fileID: 11500000, guid: 8a697579b4fd85e489f870eb2fe5b896, type: 3}
  m_Name: c_effect_laser_shoot
  m_EditorClassIdentifier: 
  parameters:
    volume:
      baseValue: 1
      random: 0
      minOffset: 0
      maxOffset: 0
    pitch:
      baseValue: 0
      random: 0
      minOffset: 0
      maxOffset: 0
  containerType: 1
  audioObjects:
  - {fileID: 11400000, guid: 34fd01a8186fc2549a490148f60ed00f, type: 2}
  repeat: 0
  repeatType: 0
  containerRepeatDelay: 0
  holdEmitterPosition: 0
